Compact data.frame — dframe • scrubr
…
    Compact data.frame

dframe(x)

    Arguments

      x
      Input data.frame

    Examples

dframe(sample_data_1)
#> # A tibble: 1,500 x 5
#>    name             longitude latitude date                       key
#>    <chr>                <dbl>    <dbl> <dttm>                   <int>
#>  1 Ursus americanus     -79.7     38.4 2015-01-14 16:36:45 1065590124
#>  2 Ursus americanus     -82.4     35.7 2015-01-13 00:25:39 1065588899
#>  3 Ursus americanus     -99.1     23.7 2015-02-20 23:00:00 1098894889
#>  4 Ursus americanus     -72.8     43.9 2015-02-13 16:16:41 1065611122
#>  5 Ursus americanus     -72.3     43.9 2015-03-01 20:20:45 1088908315
#>  6 Ursus americanus    -109.      32.7 2015-03-29 17:06:54 1088932238
#>  7 Ursus americanus    -109.      32.7 2015-03-29 17:12:50 1088932273
#>  8 Ursus americanus    -124.      40.1 2015-03-28 23:00:00 1132403409
#>  9 Ursus americanus     -78.3     36.9 2015-03-20 21:11:24 1088923534
#> 10 Ursus americanus     -76.8     35.5 2015-04-05 23:00:00 1088954559
#> # … with 1,490 more rows
dframe(mtcars)
#> # A tibble: 32 x 11
#>      mpg   cyl  disp    hp  drat    wt  qsec    vs    am  gear  carb
#>    <dbl> <dbl> <dbl> <dbl> <dbl> <dbl> <dbl> <dbl> <dbl> <dbl> <dbl>
#>  1  21       6  160    110  3.9   2.62  16.5     0     1     4     4
#>  2  21       6  160    110  3.9   2.88  17.0     0     1     4     4
#>  3  22.8     4  108     93  3.85  2.32  18.6     1     1     4     1
#>  4  21.4     6  258    110  3.08  3.22  19.4     1     0     3     1
#>  5  18.7     8  360    175  3.15  3.44  17.0     0     0     3     2
#>  6  18.1     6  225    105  2.76  3.46  20.2     1     0     3     1
#>  7  14.3     8  360    245  3.21  3.57  15.8     0     0     3     4
#>  8  24.4     4  147.    62  3.69  3.19  20       1     0     4     2
#>  9  22.8     4  141.    95  3.92  3.15  22.9     1     0     4     2
#> 10  19.2     6  168.   123  3.92  3.44  18.3     1     0     4     4
#> # … with 22 more rows
dframe(iris)
#> # A tibble: 150 x 5
#>    Sepal.Length Sepal.Width Petal.Length Petal.Width Species
#>           <dbl>       <dbl>        <dbl>       <dbl> <fct>  
#>  1          5.1         3.5          1.4         0.2 setosa 
#>  2          4.9         3            1.4         0.2 setosa 
#>  3          4.7         3.2          1.3         0.2 setosa 
#>  4          4.6         3.1          1.5         0.2 setosa 
#>  5          5           3.6          1.4         0.2 setosa 
#>  6          5.4         3.9          1.7         0.4 setosa 
#>  7          4.6         3.4          1.4         0.3 setosa 
#>  8          5           3.4          1.5         0.2 setosa 
#>  9          4.4         2.9          1.4         0.2 setosa 
#> 10          4.9         3.1          1.5         0.1 setosa 
#> # … with 140 more rows
…
